%YAML 1.1
%TAG !u! tag:unity3d.com,2011:
--- !u!114 &11400000
MonoBehaviour:
  m_ObjectHideFlags: 0
  m_CorrespondingSourceObject: {fileID: 0}
  m_PrefabInstance: {fileID: 0}
  m_PrefabAsset: {fileID: 0}
  m_GameObject: {fileID: 0}
  m_Enabled: 1
  m_EditorHideFlags: 0
  m_Script: {fileID: 11500000, guid: 51795c1628259a347ab8dbacb54b3e2d, type: 3}
  m_Name: SHIELD 1
  m_EditorClassIdentifier: 
  name: shieldo
  icon: {fileID: 21300000, guid: 1ba1b2c883aa5cc41bc846db4beeae86, type: 3}
  typeOfItem: shield
  description: 'shield of wooden from a fallen tree ):'
  quantity: 1
  defenseModifier: 10
  attackModifier: 0
  speedModifier: 0
  isEquipment: 1
  isDefaultItem: 0
  equipSlot: 2
  mesh: {fileID: 1457349994509740700, guid: 3404bda12a9dc6b4585fce123cc3c59b, type: 3}
  equipedPosition: {x: 0, y: 0, z: 0}
  equipedRotation: {x: 0, y: 0, z: 0}
