%YAML 1.1
%TAG !u! tag:unity3d.com,2011:
--- !u!114 &11400000
MonoBehaviour:
  m_ObjectHideFlags: 0
  m_CorrespondingSourceObject: {fileID: 0}
  m_PrefabInstance: {fileID: 0}
  m_PrefabAsset: {fileID: 0}
  m_GameObject: {fileID: 0}
  m_Enabled: 1
  m_EditorHideFlags: 0
  m_Script: {fileID: 11500000, guid: 035028bea4b1d2247917f4ee69a4bdbb, type: 3}
  m_Name: casaRamosSucre
  m_EditorClassIdentifier: 
  name: Casa Ramos Sucre
  description: Esta es la casa de ramos sucre, donde vivio ramos sucre, fin.
