%YAML 1.1
%TAG !u! tag:unity3d.com,2011:
--- !u!1001 &3238727723181326380
PrefabInstance:
  m_ObjectHideFlags: 0
  serializedVersion: 2
  m_Modification:
    m_TransformParent: {fileID: 0}
    m_Modifications:
    - target: {fileID: 1009907695526635862, guid: 03baabbeca9a9144597baf4a8e82ba7c, type: 3}
      propertyPath: m_SizeDelta.x
      value: 32
      objectReference: {fileID: 0}
    - target: {fileID: 1902765428571931270, guid: 03baabbeca9a9144597baf4a8e82ba7c, type: 3}
      propertyPath: m_Name
      value: buttonIndicationLong
      objectReference: {fileID: 0}
    - target: {fileID: 2713442129893359536, guid: 03baabbeca9a9144597baf4a8e82ba7c, type: 3}
      propertyPath: m_SizeDelta.x
      value: 32
      objectReference: {fileID: 0}
    - target: {fileID: 2713442129893359536, guid: 03baabbeca9a9144597baf4a8e82ba7c, type: 3}
      propertyPath: m_AnchoredPosition.x
      value: 16
      objectReference: {fileID: 0}
    - target: {fileID: 3891337256924118022, guid: 03baabbeca9a9144597baf4a8e82ba7c, type: 3}
      propertyPath: m_SizeDelta.x
      value: 99.841324
      objectReference: {fileID: 0}
    - target: {fileID: 3891337256924118022, guid: 03baabbeca9a9144597baf4a8e82ba7c, type: 3}
      propertyPath: m_AnchoredPosition.x
      value: 90.079
      objectReference: {fileID: 0}
    - target: {fileID: 4312657746973535519, guid: 03baabbeca9a9144597baf4a8e82ba7c, type: 3}
      propertyPath: m_text
      value: Resume game
      objectReference: {fileID: 0}
    - target: {fileID: 7251785024184937211, guid: 03baabbeca9a9144597baf4a8e82ba7c, type: 3}
      propertyPath: m_Pivot.x
      value: 0.5
      objectReference: {fileID: 0}
    - target: {fileID: 7251785024184937211, guid: 03baabbeca9a9144597baf4a8e82ba7c, type: 3}
      propertyPath: m_Pivot.y
      value: 0.5
      objectReference: {fileID: 0}
    - target: {fileID: 7251785024184937211, guid: 03baabbeca9a9144597baf4a8e82ba7c, type: 3}
      propertyPath: m_RootOrder
      value: 0
      objectReference: {fileID: 0}
    - target: {fileID: 7251785024184937211, guid: 03baabbeca9a9144597baf4a8e82ba7c, type: 3}
      propertyPath: m_AnchorMax.x
      value: 0
      objectReference: {fileID: 0}
    - target: {fileID: 7251785024184937211, guid: 03baabbeca9a9144597baf4a8e82ba7c, type: 3}
      propertyPath: m_AnchorMax.y
      value: 0
      objectReference: {fileID: 0}
    - target: {fileID: 7251785024184937211, guid: 03baabbeca9a9144597baf4a8e82ba7c, type: 3}
      propertyPath: m_AnchorMin.x
      value: 0
      objectReference: {fileID: 0}
    - target: {fileID: 7251785024184937211, guid: 03baabbeca9a9144597baf4a8e82ba7c, type: 3}
      propertyPath: m_AnchorMin.y
      value: 0
      objectReference: {fileID: 0}
    - target: {fileID: 7251785024184937211, guid: 03baabbeca9a9144597baf4a8e82ba7c, type: 3}
      propertyPath: m_SizeDelta.x
      value: 140
      objectReference: {fileID: 0}
    - target: {fileID: 7251785024184937211, guid: 03baabbeca9a9144597baf4a8e82ba7c, type: 3}
      propertyPath: m_SizeDelta.y
      value: 24
      objectReference: {fileID: 0}
    - target: {fileID: 7251785024184937211, guid: 03baabbeca9a9144597baf4a8e82ba7c, type: 3}
      propertyPath: m_LocalPosition.x
      value: 0
      objectReference: {fileID: 0}
    - target: {fileID: 7251785024184937211, guid: 03baabbeca9a9144597baf4a8e82ba7c, type: 3}
      propertyPath: m_LocalPosition.y
      value: 0
      objectReference: {fileID: 0}
    - target: {fileID: 7251785024184937211, guid: 03baabbeca9a9144597baf4a8e82ba7c, type: 3}
      propertyPath: m_LocalPosition.z
      value: 0
      objectReference: {fileID: 0}
    - target: {fileID: 7251785024184937211, guid: 03baabbeca9a9144597baf4a8e82ba7c, type: 3}
      propertyPath: m_LocalRotation.w
      value: 1
      objectReference: {fileID: 0}
    - target: {fileID: 7251785024184937211, guid: 03baabbeca9a9144597baf4a8e82ba7c, type: 3}
      propertyPath: m_LocalRotation.x
      value: 0
      objectReference: {fileID: 0}
    - target: {fileID: 7251785024184937211, guid: 03baabbeca9a9144597baf4a8e82ba7c, type: 3}
      propertyPath: m_LocalRotation.y
      value: 0
      objectReference: {fileID: 0}
    - target: {fileID: 7251785024184937211, guid: 03baabbeca9a9144597baf4a8e82ba7c, type: 3}
      propertyPath: m_LocalRotation.z
      value: 0
      objectReference: {fileID: 0}
    - target: {fileID: 7251785024184937211, guid: 03baabbeca9a9144597baf4a8e82ba7c, type: 3}
      propertyPath: m_AnchoredPosition.x
      value: 195
      objectReference: {fileID: 0}
    - target: {fileID: 7251785024184937211, guid: 03baabbeca9a9144597baf4a8e82ba7c, type: 3}
      propertyPath: m_AnchoredPosition.y
      value: 90
      objectReference: {fileID: 0}
    - target: {fileID: 7251785024184937211, guid: 03baabbeca9a9144597baf4a8e82ba7c, type: 3}
      propertyPath: m_LocalEulerAnglesHint.x
      value: 0
      objectReference: {fileID: 0}
    - target: {fileID: 7251785024184937211, guid: 03baabbeca9a9144597baf4a8e82ba7c, type: 3}
      propertyPath: m_LocalEulerAnglesHint.y
      value: 0
      objectReference: {fileID: 0}
    - target: {fileID: 7251785024184937211, guid: 03baabbeca9a9144597baf4a8e82ba7c, type: 3}
      propertyPath: m_LocalEulerAnglesHint.z
      value: 0
      objectReference: {fileID: 0}
    - target: {fileID: 7334717802525488317, guid: 03baabbeca9a9144597baf4a8e82ba7c, type: 3}
      propertyPath: m_text
      value: Esc
      objectReference: {fileID: 0}
    - target: {fileID: 7334717802525488317, guid: 03baabbeca9a9144597baf4a8e82ba7c, type: 3}
      propertyPath: m_fontSize
      value: 13
      objectReference: {fileID: 0}
    - target: {fileID: 7334717802525488317, guid: 03baabbeca9a9144597baf4a8e82ba7c, type: 3}
      propertyPath: m_fontSizeBase
      value: 13
      objectReference: {fileID: 0}
    - target: {fileID: 8439191713908673211, guid: 03baabbeca9a9144597baf4a8e82ba7c, type: 3}
      propertyPath: m_Sprite
      value: 
      objectReference: {fileID: 21300000, guid: e1f50b0cca5d2ba46be4b30cea61a9de, type: 3}
    m_RemovedComponents: []
  m_SourcePrefab: {fileID: 100100000, guid: 03baabbeca9a9144597baf4a8e82ba7c, type: 3}
