%YAML 1.1
%TAG !u! tag:unity3d.com,2011:
--- !u!1001 &8112881049622230487
PrefabInstance:
  m_ObjectHideFlags: 0
  serializedVersion: 2
  m_Modification:
    m_TransformParent: {fileID: 0}
    m_Modifications:
    - target: {fileID: 7170124435928004591, guid: 4b2032b4e25a10c46bc9b1fa05242b64, type: 3}
      propertyPath: m_RootOrder
      value: 0
      objectReference: {fileID: 0}
    - target: {fileID: 7170124435928004591, guid: 4b2032b4e25a10c46bc9b1fa05242b64, type: 3}
      propertyPath: m_LocalScale.x
      value: 150.4375
      objectReference: {fileID: 0}
    - target: {fileID: 7170124435928004591, guid: 4b2032b4e25a10c46bc9b1fa05242b64, type: 3}
      propertyPath: m_LocalScale.z
      value: 180.8625
      objectReference: {fileID: 0}
    - target: {fileID: 7170124435928004591, guid: 4b2032b4e25a10c46bc9b1fa05242b64, type: 3}
      propertyPath: m_LocalPosition.x
      value: -13.021
      objectReference: {fileID: 0}
    - target: {fileID: 7170124435928004591, guid: 4b2032b4e25a10c46bc9b1fa05242b64, type: 3}
      propertyPath: m_LocalPosition.y
      value: 1.268
      objectReference: {fileID: 0}
    - target: {fileID: 7170124435928004591, guid: 4b2032b4e25a10c46bc9b1fa05242b64, type: 3}
      propertyPath: m_LocalPosition.z
      value: 0.079
      objectReference: {fileID: 0}
    - target: {fileID: 7170124435928004591, guid: 4b2032b4e25a10c46bc9b1fa05242b64, type: 3}
      propertyPath: m_LocalRotation.w
      value: 0
      objectReference: {fileID: 0}
    - target: {fileID: 7170124435928004591, guid: 4b2032b4e25a10c46bc9b1fa05242b64, type: 3}
      propertyPath: m_LocalRotation.x
      value: 0
      objectReference: {fileID: 0}
    - target: {fileID: 7170124435928004591, guid: 4b2032b4e25a10c46bc9b1fa05242b64, type: 3}
      propertyPath: m_LocalRotation.y
      value: 0.7072302
      objectReference: {fileID: 0}
    - target: {fileID: 7170124435928004591, guid: 4b2032b4e25a10c46bc9b1fa05242b64, type: 3}
      propertyPath: m_LocalRotation.z
      value: 0.7069834
      objectReference: {fileID: 0}
    - target: {fileID: 7170124435928004591, guid: 4b2032b4e25a10c46bc9b1fa05242b64, type: 3}
      propertyPath: m_LocalEulerAnglesHint.x
      value: -89.98
      objectReference: {fileID: 0}
    - target: {fileID: 7170124435928004591, guid: 4b2032b4e25a10c46bc9b1fa05242b64, type: 3}
      propertyPath: m_LocalEulerAnglesHint.y
      value: 180
      objectReference: {fileID: 0}
    - target: {fileID: 7170124435928004591, guid: 4b2032b4e25a10c46bc9b1fa05242b64, type: 3}
      propertyPath: m_LocalEulerAnglesHint.z
      value: 0
      objectReference: {fileID: 0}
    - target: {fileID: 7551048402828946773, guid: 4b2032b4e25a10c46bc9b1fa05242b64, type: 3}
      propertyPath: m_Name
      value: gridSimpleSlim - door
      objectReference: {fileID: 0}
    m_RemovedComponents: []
  m_SourcePrefab: {fileID: 100100000, guid: 4b2032b4e25a10c46bc9b1fa05242b64, type: 3}
